+-------------------+
| *** query #1a *** |
+-------------------+
| *** query #1a *** |
+-------------------+
+------+------+
| A    | B    |
+------+------+
|    1 |    4 |
|    2 |    5 |
|    3 |    6 |
+------+------+
+------+------+------+
| C    | D    | E    |
+------+------+------+
|    4 |    1 |    2 |
|    5 |    3 |    4 |
|    6 |    5 |    6 |
|    7 |    7 |    8 |
+------+------+------+
+----------+
| count(*) |
+----------+
|       12 |
+----------+
+------+------+------+------+------+
| A    | B    | C    | D    | E    |
+------+------+------+------+------+
|    1 |    4 |    4 |    1 |    2 |
|    2 |    5 |    4 |    1 |    2 |
|    3 |    6 |    4 |    1 |    2 |
|    1 |    4 |    5 |    3 |    4 |
|    2 |    5 |    5 |    3 |    4 |
|    3 |    6 |    5 |    3 |    4 |
|    1 |    4 |    6 |    5 |    6 |
|    2 |    5 |    6 |    5 |    6 |
|    3 |    6 |    6 |    5 |    6 |
|    1 |    4 |    7 |    7 |    8 |
|    2 |    5 |    7 |    7 |    8 |
|    3 |    6 |    7 |    7 |    8 |
+------+------+------+------+------+
+-------------------+
| *** query #1b *** |
+-------------------+
| *** query #1b *** |
+-------------------+
+------+------+
| A    | B    |
+------+------+
|    1 |    4 |
|    2 |    5 |
|    3 |    6 |
+------+------+
+------+------+------+
| C    | D    | E    |
+------+------+------+
|    4 |    1 |    2 |
|    5 |    3 |    4 |
|    6 |    5 |    6 |
|    7 |    7 |    8 |
+------+------+------+
+----------+
| count(*) |
+----------+
|        0 |
+----------+
+-------------------+
| *** query #1c *** |
+-------------------+
| *** query #1c *** |
+-------------------+
+------+------+
| A    | B    |
+------+------+
|    1 |    4 |
|    2 |    5 |
|    3 |    6 |
+------+------+
+------+------+------+
| C    | D    | E    |
+------+------+------+
|    4 |    1 |    2 |
|    5 |    3 |    4 |
|    6 |    5 |    6 |
|    7 |    7 |    8 |
+------+------+------+
+----------+
| count(*) |
+----------+
|        3 |
+----------+
+------+------+------+------+------+
| A    | B    | C    | D    | E    |
+------+------+------+------+------+
|    1 |    4 | NULL | NULL | NULL |
|    2 |    5 | NULL | NULL | NULL |
|    3 |    6 | NULL | NULL | NULL |
+------+------+------+------+------+
+-------------------+
| *** query #1d *** |
+-------------------+
| *** query #1d *** |
+-------------------+
+------+------+
| A    | B    |
+------+------+
|    1 |    4 |
|    2 |    5 |
|    3 |    6 |
+------+------+
+------+------+------+
| C    | D    | E    |
+------+------+------+
|    4 |    1 |    2 |
|    5 |    3 |    4 |
|    6 |    5 |    6 |
|    7 |    7 |    8 |
+------+------+------+
+----------+
| count(*) |
+----------+
|        4 |
+----------+
+------+------+------+------+------+
| A    | B    | C    | D    | E    |
+------+------+------+------+------+
| NULL | NULL |    4 |    1 |    2 |
| NULL | NULL |    5 |    3 |    4 |
| NULL | NULL |    6 |    5 |    6 |
| NULL | NULL |    7 |    7 |    8 |
+------+------+------+------+------+
+-------------------+
| *** query #1e *** |
+-------------------+
| *** query #1e *** |
+-------------------+
+------+------+
| A    | B    |
+------+------+
|    1 |    4 |
|    2 |    5 |
|    3 |    6 |
+------+------+
+------+------+------+
| C    | D    | E    |
+------+------+------+
|    4 |    1 |    2 |
|    5 |    3 |    4 |
|    6 |    5 |    6 |
|    7 |    7 |    8 |
+------+------+------+
+----------+
| count(*) |
+----------+
|       12 |
+----------+
+------+------+------+------+------+
| A    | B    | C    | D    | E    |
+------+------+------+------+------+
|    1 |    4 |    4 |    1 |    2 |
|    2 |    5 |    4 |    1 |    2 |
|    3 |    6 |    4 |    1 |    2 |
|    1 |    4 |    5 |    3 |    4 |
|    2 |    5 |    5 |    3 |    4 |
|    3 |    6 |    5 |    3 |    4 |
|    1 |    4 |    6 |    5 |    6 |
|    2 |    5 |    6 |    5 |    6 |
|    3 |    6 |    6 |    5 |    6 |
|    1 |    4 |    7 |    7 |    8 |
|    2 |    5 |    7 |    7 |    8 |
|    3 |    6 |    7 |    7 |    8 |
+------+------+------+------+------+
+-------------------+
| *** query #2a *** |
+-------------------+
| *** query #2a *** |
+-------------------+
+------+------+
| A    | B    |
+------+------+
|    1 |    4 |
|    2 |    5 |
|    3 |    6 |
+------+------+
+------+------+------+
| A    | C    | D    |
+------+------+------+
|    4 |    1 |    2 |
|    5 |    3 |    4 |
|    6 |    5 |    6 |
|    7 |    7 |    8 |
+------+------+------+
+----------+
| count(*) |
+----------+
|       12 |
+----------+
+------+------+------+------+------+
| A    | B    | A    | C    | D    |
+------+------+------+------+------+
|    1 |    4 |    4 |    1 |    2 |
|    2 |    5 |    4 |    1 |    2 |
|    3 |    6 |    4 |    1 |    2 |
|    1 |    4 |    5 |    3 |    4 |
|    2 |    5 |    5 |    3 |    4 |
|    3 |    6 |    5 |    3 |    4 |
|    1 |    4 |    6 |    5 |    6 |
|    2 |    5 |    6 |    5 |    6 |
|    3 |    6 |    6 |    5 |    6 |
|    1 |    4 |    7 |    7 |    8 |
|    2 |    5 |    7 |    7 |    8 |
|    3 |    6 |    7 |    7 |    8 |
+------+------+------+------+------+
+-------------------+
| *** query #2b *** |
+-------------------+
| *** query #2b *** |
+-------------------+
+------+------+
| A    | B    |
+------+------+
|    1 |    4 |
|    2 |    5 |
|    3 |    6 |
+------+------+
+------+------+------+
| A    | C    | D    |
+------+------+------+
|    4 |    1 |    2 |
|    5 |    3 |    4 |
|    6 |    5 |    6 |
|    7 |    7 |    8 |
+------+------+------+
+----------+
| count(*) |
+----------+
|        0 |
+----------+
+-------------------+
| *** query #2c *** |
+-------------------+
| *** query #2c *** |
+-------------------+
+------+------+
| A    | B    |
+------+------+
|    1 |    4 |
|    2 |    5 |
|    3 |    6 |
+------+------+
+------+------+------+
| A    | C    | D    |
+------+------+------+
|    4 |    1 |    2 |
|    5 |    3 |    4 |
|    6 |    5 |    6 |
|    7 |    7 |    8 |
+------+------+------+
+----------+
| count(*) |
+----------+
|        3 |
+----------+
+------+------+------+------+
| A    | B    | C    | D    |
+------+------+------+------+
|    1 |    4 | NULL | NULL |
|    2 |    5 | NULL | NULL |
|    3 |    6 | NULL | NULL |
+------+------+------+------+
+-------------------+
| *** query #2d *** |
+-------------------+
| *** query #2d *** |
+-------------------+
+------+------+
| A    | B    |
+------+------+
|    1 |    4 |
|    2 |    5 |
|    3 |    6 |
+------+------+
+------+------+------+
| A    | C    | D    |
+------+------+------+
|    4 |    1 |    2 |
|    5 |    3 |    4 |
|    6 |    5 |    6 |
|    7 |    7 |    8 |
+------+------+------+
+----------+
| count(*) |
+----------+
|        4 |
+----------+
+------+------+------+------+
| A    | C    | D    | B    |
+------+------+------+------+
|    4 |    1 |    2 | NULL |
|    5 |    3 |    4 | NULL |
|    6 |    5 |    6 | NULL |
|    7 |    7 |    8 | NULL |
+------+------+------+------+
+-------------------+
| *** query #2e *** |
+-------------------+
| *** query #2e *** |
+-------------------+
+------+------+
| A    | B    |
+------+------+
|    1 |    4 |
|    2 |    5 |
|    3 |    6 |
+------+------+
+------+------+------+
| A    | C    | D    |
+------+------+------+
|    4 |    1 |    2 |
|    5 |    3 |    4 |
|    6 |    5 |    6 |
|    7 |    7 |    8 |
+------+------+------+
+----------+
| count(*) |
+----------+
|        0 |
+----------+
+-------------------+
| *** query #3a *** |
+-------------------+
| *** query #3a *** |
+-------------------+
+------+------+
| A    | B    |
+------+------+
|    1 |    4 |
|    2 |    5 |
|    3 |    6 |
+------+------+
+------+------+------+
| A    | C    | D    |
+------+------+------+
|    1 |    1 |    2 |
|    2 |    3 |    4 |
|    2 |    5 |    6 |
|    4 |    7 |    8 |
+------+------+------+
+----------+
| count(*) |
+----------+
|       12 |
+----------+
+------+------+------+------+------+
| A    | B    | A    | C    | D    |
+------+------+------+------+------+
|    1 |    4 |    1 |    1 |    2 |
|    2 |    5 |    1 |    1 |    2 |
|    3 |    6 |    1 |    1 |    2 |
|    1 |    4 |    2 |    3 |    4 |
|    2 |    5 |    2 |    3 |    4 |
|    3 |    6 |    2 |    3 |    4 |
|    1 |    4 |    2 |    5 |    6 |
|    2 |    5 |    2 |    5 |    6 |
|    3 |    6 |    2 |    5 |    6 |
|    1 |    4 |    4 |    7 |    8 |
|    2 |    5 |    4 |    7 |    8 |
|    3 |    6 |    4 |    7 |    8 |
+------+------+------+------+------+
+-------------------+
| *** query #3b *** |
+-------------------+
| *** query #3b *** |
+-------------------+
+------+------+
| A    | B    |
+------+------+
|    1 |    4 |
|    2 |    5 |
|    3 |    6 |
+------+------+
+------+------+------+
| A    | C    | D    |
+------+------+------+
|    1 |    1 |    2 |
|    2 |    3 |    4 |
|    2 |    5 |    6 |
|    4 |    7 |    8 |
+------+------+------+
+----------+
| count(*) |
+----------+
|        3 |
+----------+
+------+------+------+------+
| A    | B    | C    | D    |
+------+------+------+------+
|    1 |    4 |    1 |    2 |
|    2 |    5 |    3 |    4 |
|    2 |    5 |    5 |    6 |
+------+------+------+------+
+-------------------+
| *** query #3c *** |
+-------------------+
| *** query #3c *** |
+-------------------+
+------+------+
| A    | B    |
+------+------+
|    1 |    4 |
|    2 |    5 |
|    3 |    6 |
+------+------+
+------+------+------+
| A    | C    | D    |
+------+------+------+
|    1 |    1 |    2 |
|    2 |    3 |    4 |
|    2 |    5 |    6 |
|    4 |    7 |    8 |
+------+------+------+
+----------+
| count(*) |
+----------+
|        4 |
+----------+
+------+------+------+------+
| A    | B    | C    | D    |
+------+------+------+------+
|    1 |    4 |    1 |    2 |
|    2 |    5 |    3 |    4 |
|    2 |    5 |    5 |    6 |
|    3 |    6 | NULL | NULL |
+------+------+------+------+
+-------------------+
| *** query #3d *** |
+-------------------+
| *** query #3d *** |
+-------------------+
+------+------+
| A    | B    |
+------+------+
|    1 |    4 |
|    2 |    5 |
|    3 |    6 |
+------+------+
+------+------+------+
| A    | C    | D    |
+------+------+------+
|    1 |    1 |    2 |
|    2 |    3 |    4 |
|    2 |    5 |    6 |
|    4 |    7 |    8 |
+------+------+------+
+----------+
| count(*) |
+----------+
|        4 |
+----------+
+------+------+------+------+
| A    | C    | D    | B    |
+------+------+------+------+
|    1 |    1 |    2 |    4 |
|    2 |    3 |    4 |    5 |
|    2 |    5 |    6 |    5 |
|    4 |    7 |    8 | NULL |
+------+------+------+------+
+-------------------+
| *** query #3e *** |
+-------------------+
| *** query #3e *** |
+-------------------+
+------+------+
| A    | B    |
+------+------+
|    1 |    4 |
|    2 |    5 |
|    3 |    6 |
+------+------+
+------+------+------+
| A    | C    | D    |
+------+------+------+
|    1 |    1 |    2 |
|    2 |    3 |    4 |
|    2 |    5 |    6 |
|    4 |    7 |    8 |
+------+------+------+
+----------+
| count(*) |
+----------+
|        3 |
+----------+
+------+------+------+------+
| A    | B    | C    | D    |
+------+------+------+------+
|    1 |    4 |    1 |    2 |
|    2 |    5 |    3 |    4 |
|    2 |    5 |    5 |    6 |
+------+------+------+------+
+-------------------+
| *** query #4a *** |
+-------------------+
| *** query #4a *** |
+-------------------+
+------+
| A    |
+------+
|    1 |
|    2 |
|    3 |
+------+
+----------+
| count(*) |
+----------+
|        9 |
+----------+
+------+------+
| A    | A    |
+------+------+
|    1 |    1 |
|    2 |    1 |
|    3 |    1 |
|    1 |    2 |
|    2 |    2 |
|    3 |    2 |
|    1 |    3 |
|    2 |    3 |
|    3 |    3 |
+------+------+
+-------------------+
| *** query #4b *** |
+-------------------+
| *** query #4b *** |
+-------------------+
+------+
| A    |
+------+
|    1 |
|    2 |
|    3 |
+------+
+----------+
| count(*) |
+----------+
|        3 |
+----------+
+------+
| A    |
+------+
|    1 |
|    2 |
|    3 |
+------+
+-------------------+
| *** query #4c *** |
+-------------------+
| *** query #4c *** |
+-------------------+
+------+
| A    |
+------+
|    1 |
|    2 |
|    3 |
+------+
+----------+
| count(*) |
+----------+
|        3 |
+----------+
+------+
| A    |
+------+
|    1 |
|    2 |
|    3 |
+------+
+-------------------+
| *** query #4d *** |
+-------------------+
| *** query #4d *** |
+-------------------+
+------+
| A    |
+------+
|    1 |
|    2 |
|    3 |
+------+
+----------+
| count(*) |
+----------+
|        3 |
+----------+
+------+
| A    |
+------+
|    1 |
|    2 |
|    3 |
+------+
+-------------------+
| *** query #4e *** |
+-------------------+
| *** query #4e *** |
+-------------------+
+------+
| A    |
+------+
|    1 |
|    2 |
|    3 |
+------+
+----------+
| count(*) |
+----------+
|        3 |
+----------+
+------+
| A    |
+------+
|    1 |
|    2 |
|    3 |
+------+
