+------------------+
| *** query #1 *** |
+------------------+
| *** query #1 *** |
+------------------+
+------+----------+----------------+
| sID  | cName    | major          |
+------+----------+----------------+
|  123 | Berkeley | CS             |
|  987 | Berkeley | CS             |
|  123 | Cornell  | EE             |
|  345 | Cornell  | CS             |
|  765 | Cornell  | psychology     |
|  321 | MIT      | psychology     |
|  345 | MIT      | bioengineering |
|  876 | MIT      | biology        |
|  123 | Stanford | CS             |
|  678 | Stanford | history        |
|  765 | Stanford | history        |
|  987 | Stanford | CS             |
+------+----------+----------------+
+------------------+
| *** query #2 *** |
+------------------+
| *** query #2 *** |
+------------------+
+----------+----------+
| cName    | decision |
+----------+----------+
| Stanford |        1 |
| Cornell  |        1 |
+----------+----------+
+------------------+
| *** query #3 *** |
+------------------+
| *** query #3 *** |
+------------------+
+-------+--------+
| sName | sizeHS |
+-------+--------+
| Amy   |   1000 |
| Mary  |   1200 |
| Amy   |   1000 |
| Fay   |    200 |
| Jay   |   1500 |
| Gary  |    800 |
+-------+--------+
+------------------+
| *** query #4 *** |
+------------------+
| *** query #4 *** |
+------------------+
+-------------+-------------+-------------+
| min(sizeHS) | max(sizeHS) | avg(sizeHS) |
+-------------+-------------+-------------+
|         200 |        1500 |    925.0000 |
+-------------+-------------+-------------+
+------------------+
| *** query #5 *** |
+------------------+
| *** query #5 *** |
+------------------+
+----------+
| count(*) |
+----------+
|        3 |
+----------+
+------------------+
| *** query #6 *** |
+------------------+
| *** query #6 *** |
+------------------+
+-------+-----------------+-----------------+-----------------+
| state | min(enrollment) | max(enrollment) | avg(enrollment) |
+-------+-----------------+-----------------+-----------------+
| TX    |           25000 |           25000 |      25000.0000 |
| NY    |           21000 |           21000 |      21000.0000 |
+-------+-----------------+-----------------+-----------------+
+------------------+
| *** query #7 *** |
+------------------+
| *** query #7 *** |
+------------------+
+-------+-----------------+-----------------+-----------------+
| state | min(enrollment) | max(enrollment) | avg(enrollment) |
+-------+-----------------+-----------------+-----------------+
| TX    |           25000 |           25000 |      25000.0000 |
| CA    |           15000 |           36000 |      25500.0000 |
| NY    |           21000 |           21000 |      21000.0000 |
+-------+-----------------+-----------------+-----------------+
